{
  "project_info": {
    "project_number": "977755957538",
    "firebase_url": "https://android-popup-remainder.firebaseio.com",
    "project_id": "android-popup-remainder",
    "storage_bucket": "android-popup-remainder.appspot.com"
  },
  "client": [
    {
      "client_info": {
        "mobilesdk_app_id": "1:977755957538:android:af87b924921a9831",
        "android_client_info": {
          "package_name": "batrand.android.popupreminder"
        }
      },
      "oauth_client": [
        {
          "client_id": "977755957538-ld5j38dga0qomhljbeinpku9k88s8m0h.apps.googleusercontent.com",
          "client_type": 1,
          "android_info": {
            "package_name": "batrand.android.popupreminder",
            "certificate_hash": "3d152773403caf699989d20028ecd18c3abdf1ce"
          }
        },
        {
          "client_id": "977755957538-demh5f02uj2u0nc7aof5irkpofff14ve.apps.googleusercontent.com",
          "client_type": 3
        }
      ],
      "api_key": [
        {
          "current_key": "AIzaSyBl-eEc3-fySvCFuw_etST8HclwhSAH1oI"
        }
      ],
      "services": {
        "analytics_service": {
          "status": 1
        },
        "appinvite_service": {
          "status": 2,
          "other_platform_oauth_client": [
            {
              "client_id": "977755957538-demh5f02uj2u0nc7aof5irkpofff14ve.apps.googleusercontent.com",
              "client_type": 3
            }
          ]
        },
        "ads_service": {
          "status": 2
        }
      }
    }
  ],
  "configuration_version": "1"
}